Analysis of Autographer Images Annotations • watchme
…
A table of coding results. The columns are name/nothing, image_path/X.Filename.With.Ext, image_time/EXIF.Date.Taken..Y.m.d_H.M.S., annotation/IPTC.Keywords. In this case the column name is a repetition of the participant name. The column image_path indicates the path to the picture, or its name. It only needs to be unique for each picture. The column image_time gives the date and time at which the picture was taken. The column annotation gives the code(s) associated with the picture. They can be pasted one after another, since we will use grepl() for finding the unique X-digit identifiers, or they can be on separate lines, since all codes for one picture identified by one picture_name will be merged.

path_results <- system.file("extdata", "image_level_pinocchio.csv", package = "watchme")
sep_results <- ","
coding_results <- read.table(path_results, sep = sep_results, header = TRUE)
coding_results <- dplyr::tbl_df(coding_results)
coding_results

## # A tibble: 981 × 4
##         name
##       <fctr>
## 1  pinocchio
## 2  pinocchio
## 3  pinocchio
## 4  pinocchio
## 5  pinocchio
## 6  pinocchio
## 7  pinocchio
## 8  pinocchio
## 9  pinocchio
## 10 pinocchio
## # ... with 971 more rows, and 3 more variables: image_path <fctr>,
## #   image_time <fctr>, annotation <fctr>

path_results <- system.file("extdata", "sample_coding1.csv", package = "watchme")
sep_results <- "\t"
coding_results <- read.table(path_results, sep = sep_results, header = TRUE,
                    quote  =  "\'")
coding_results <- dplyr::tbl_df(coding_results)
coding_results

## # A tibble: 1,263 × 4
##                       X.Filename.With.Ext EXIF.Date.Taken..Y.m.d_H.M.S.
##                                    <fctr>                        <fctr>
## 1  "B00000000_21I6LW_20150612_115011E.JPG           2015-06-12_11-49-56
## 2  "B00000001_21I6LW_20150612_115012E.JPG           2015-06-12_11-49-59
## 3  "B00000002_21I6LW_20150612_115013E.JPG           2015-06-12_11-50-01
## 4  "B00000003_21I6LW_20150612_115014E.JPG           2015-06-12_11-50-04
## 5  "B00000004_21I6LW_20150612_115014E.JPG           2015-06-12_11-50-06
## 6  "B00000005_21I6LW_20150612_115015E.JPG           2015-06-12_11-50-09
## 7  "B00000006_21I6LW_20150612_115635E.JPG           2015-06-12_11-56-35
## 8  "B00000007_21I6LW_20150612_115710E.JPG           2015-06-12_11-57-10
## 9  "B00000008_21I6LW_20150612_120259E.JPG           2015-06-12_12-02-59
## 10 "B00000009_21I6LW_20150612_120335E.JPG           2015-06-12_12-03-35
## # ... with 1,253 more rows, and 2 more variables: IPTC.Keywords <fctr>,
## #   X.... <fctr>
…
For finding both inputs and interpreting them the watchme_prepare_data function needs to know the paths to each file, path_results and path_dico and the separator used in each of them, sep_results and sep_dico.

Below we illustrate the use of watchme_prepare_data.

library("watchme")
path_results <- system.file("extdata", "image_level_pinocchio.csv", package = "watchme")
sep_results <- ","
path_dico <-  system.file("extdata", "dicoCoding_pinocchio.csv", package = "watchme")
sep_dico <- ";"
results_table <- watchme_prepare_data(path_results=path_results, sep_results=sep_results,
              path_dico=path_dico, sep_dico=sep_dico)
results_table

## # A tibble: 955 × 10
##                                                        image_path
##                                                             <chr>
## 1  \\2015-06-04 08-36-32\\\\B00000001_21I6LW_20150603_084228E.JPG
## 2                           B00000000_21I6LW_20150603_084228E.JPG
## 3  \\2015-06-04 08-36-32\\\\B00000002_21I6LW_20150603_084236E.JPG
## 4                           B00000003_21I6LW_20150603_084313E.JPG
## 5                           B00000004_21I6LW_20150603_084349E.JPG
## 6                           B00000005_21I6LW_20150603_084429E.JPG
## 7                           B00000006_21I6LW_20150603_084509E.JPG
## 8                           B00000007_21I6LW_20150603_084624E.JPG
## 9                           B00000008_21I6LW_20150603_084657E.JPG
## 10                          B00000009_21I6LW_20150603_084739E.JPG
## # ... with 945 more rows, and 9 more variables: image_time <dttm>,
## #   participant_id <chr>, `01a` <lgl>, `01b` <lgl>, `01c` <lgl>,
## #   `02b` <lgl>, `02a` <lgl>, `03a` <lgl>, `01.` <lgl>
…
An important aspect of coding images is having a list of annotations that provides consistent results acrossed (trained) coders, or raters. Therefore one needs to check and report interrater agreement.

 Simply look at disagreements

In the package there is a function for getting the times and codes of pictures for which coders disagree, which might be useful for exploring differences when e.g. training coders.

data("coding1")
data("coding2")
results_list <- list(coding1, coding2)
names_list <- c('Cain', 'Abel')
watchme_output_differences(results_list = results_list,
                                names_list = names_list)

## # A tibble: 33 × 3
##                Cain             Abel          image_time
##               <chr>            <chr>              <dttm>
## 1   indoors, , , ,  , outdoors, , ,  2015-06-12 12:23:40
## 2     , , , mixed,  , outdoors, , ,  2015-06-12 12:24:59
## 3     , , , mixed,  , outdoors, , ,  2015-06-12 12:25:34
## 4     , , , mixed,  , outdoors, , ,  2015-06-12 13:08:17
## 5  , outdoors, , ,   indoors, , , ,  2015-06-12 13:10:01
## 6          , , , ,   indoors, , , ,  2015-06-12 15:19:45
## 7     , , , mixed,  , outdoors, , ,  2015-06-12 15:23:47
## 8     , , , mixed,  , outdoors, , ,  2015-06-12 15:24:23
## 9     , , , mixed,  , outdoors, , ,  2015-06-12 15:24:55
## 10  indoors, , , ,  , outdoors, , ,  2015-06-12 16:06:08
## # ... with 23 more rows
…
