Data processing and analysis in the CHAI project • watchme
…
 Coder training

All coders underwent training before being taken on for the coding. An useful function for assessing training success was to output differences from coding results of two coders, so that they might be able to discuss the problems.

library("watchme")
data('coding1')
data('coding2')
# With two coders
results_list <- list(coding1, coding2)
names_list <- c('Cain', 'Abel')
watchme_output_differences(results_list = results_list,
 names_list = names_list)

## # A tibble: 33 × 3
##                Cain             Abel          image_time
##               <chr>            <chr>              <dttm>
## 1   indoors, , , ,  , outdoors, , ,  2015-06-12 12:23:40
## 2     , , , mixed,  , outdoors, , ,  2015-06-12 12:24:59
## 3     , , , mixed,  , outdoors, , ,  2015-06-12 12:25:34
## 4     , , , mixed,  , outdoors, , ,  2015-06-12 13:08:17
## 5  , outdoors, , ,   indoors, , , ,  2015-06-12 13:10:01
## 6          , , , ,   indoors, , , ,  2015-06-12 15:19:45
## 7     , , , mixed,  , outdoors, , ,  2015-06-12 15:23:47
## 8     , , , mixed,  , outdoors, , ,  2015-06-12 15:24:23
## 9     , , , mixed,  , outdoors, , ,  2015-06-12 15:24:55
## 10  indoors, , , ,  , outdoors, , ,  2015-06-12 16:06:08
## # ... with 23 more rows
…
