Calculate interrater agreement • watchme
…
An important aspect of coding images is having a list of annotations that provides consistent results acrossed (trained) coders, or raters. Therefore one needs to check and report interrater agreement.

 Simply look at disagreements

In the package there is a function for getting the times and codes of pictures for which coders disagree, which might be useful for exploring differences when e.g. training coders.

data("coding1")
data("coding2")
results_list <- list(coding1, coding2)
names_list <- c('Cain', 'Abel')
watchme_output_differences(results_list = results_list,
                                names_list = names_list)

## # A tibble: 33 × 3
##                Cain             Abel          image_time
##               <chr>            <chr>              <dttm>
## 1   indoors, , , ,  , outdoors, , ,  2015-06-12 12:23:40
## 2     , , , mixed,  , outdoors, , ,  2015-06-12 12:24:59
## 3     , , , mixed,  , outdoors, , ,  2015-06-12 12:25:34
## 4     , , , mixed,  , outdoors, , ,  2015-06-12 13:08:17
## 5  , outdoors, , ,   indoors, , , ,  2015-06-12 13:10:01
## 6          , , , ,   indoors, , , ,  2015-06-12 15:19:45
## 7     , , , mixed,  , outdoors, , ,  2015-06-12 15:23:47
## 8     , , , mixed,  , outdoors, , ,  2015-06-12 15:24:23
## 9     , , , mixed,  , outdoors, , ,  2015-06-12 15:24:55
## 10  indoors, , , ,  , outdoors, , ,  2015-06-12 16:06:08
## # ... with 23 more rows
…
