Creates a wearableCamImages object from information read in a csv file. — watchme_prepare_data â€¢ watchme
…
sep_results <- ','
path_dico <-  system.file('extdata', 'dicoCoding_pinocchio.csv', package = 'watchme')
sep_dico <- ';'
data_pictures <- watchme_prepare_data(path_results=path_results, sep_results=sep_results,
              path_dico=path_dico, sep_dico=sep_dico)
#> Parsed with column specification:
#> cols(
#>   name = col_character(),
#>   image_path = col_character(),
#>   image_time = col_datetime(format = ""),
#>   annotation = col_character()
#> )
#> Warning: hms, hm and ms usage is deprecated, please use HMS, HM or MS instead. Deprecated in version '1.5.6'.
data_pictures
#> # A tibble: 955 × 10
#>                                                        image_path
#>                                                             <chr>
#> 1  \\2015-06-04 08-36-32\\\\B00000001_21I6LW_20150603_084228E.JPG
#> 2                           B00000000_21I6LW_20150603_084228E.JPG
#> 3  \\2015-06-04 08-36-32\\\\B00000002_21I6LW_20150603_084236E.JPG
#> 4                           B00000003_21I6LW_20150603_084313E.JPG
#> 5                           B00000004_21I6LW_20150603_084349E.JPG
#> 6                           B00000005_21I6LW_20150603_084429E.JPG
#> 7                           B00000006_21I6LW_20150603_084509E.JPG
#> 8                           B00000007_21I6LW_20150603_084624E.JPG
#> 9                           B00000008_21I6LW_20150603_084657E.JPG
#> 10                          B00000009_21I6LW_20150603_084739E.JPG
#> # ... with 945 more rows, and 9 more variables: image_time <dttm>,
#> #   participant_id <chr>, `01a` <lgl>, `01b` <lgl>, `01c` <lgl>, `02b` <lgl>,
#> #   `02a` <lgl>, `03a` <lgl>, `01.` <lgl>
…
