Combine objects with same pictures but different codes — watchme_combine_results â€¢ watchme
…
#>   X4 = col_character()
#> )
#> Warning: hms, hm and ms usage is deprecated, please use HMS, HM or MS instead. Deprecated in version '1.5.6'.
#> Parsed with column specification:
#> cols(
#>   Filename = col_character(),
#>   `EXIF:Date Taken [Y-m-d_H-M-S]` = col_character(),
#>   `IPTC:Keywords` = col_character(),
#>   X4 = col_character()
#> )
#> Warning: hms, hm and ms usage is deprecated, please use HMS, HM or MS instead. Deprecated in version '1.5.6'.
oneday_results <- watchme_combine_results(results_list,
common_codes = "non_codable")
oneday_results
#> # A tibble: 1,665 × 26
#>                           image_path          image_time participant_id
#>                                <chr>              <dttm>          <chr>
#> 1  B00000000_21I6LU_20150527_073822E 2015-05-27 07:38:01          no_id
#> 2  B00000001_21I6LU_20150527_073823E 2015-05-27 07:38:04          no_id
#> 3  B00000002_21I6LU_20150527_073824E 2015-05-27 07:38:06          no_id
#> 4  B00000003_21I6LU_20150527_073825E 2015-05-27 07:38:09          no_id
#> 5  B00000004_21I6LU_20150527_073826E 2015-05-27 07:38:12          no_id
#> 6  B00000005_21I6LU_20150527_073826E 2015-05-27 07:38:14          no_id
#> 7  B00000006_21I6LU_20150527_073826E 2015-05-27 07:38:17          no_id
#> 8  B00000007_21I6LU_20150527_073827E 2015-05-27 07:38:19          no_id
#> 9  B00000008_21I6LU_20150527_073828E 2015-05-27 07:38:22          no_id
#> 10 B00000009_21I6LU_20150527_080738E 2015-05-27 08:07:37          no_id
#> # ... with 1,655 more rows, and 23 more variables: biomass_cooking_unit <lgl>,
#> #   lpg_stove <lgl>, other_cooking_unit <lgl>, food_preparation <lgl>,
#> #   eating <lgl>, presence_in_the_kitchen <lgl>, indoors <lgl>, outdoors <lgl>,
#> #   in_vehicle <lgl>, mixed <lgl>, presence_at_office_or_shop <lgl>,
#> #   presence_at_work_field <lgl>, presence_in_industry <lgl>,
#> #   presence_in_informal_work <lgl>, diesel_generator <lgl>, smoking <lgl>,
#> #   visible_flame_or_smoke <lgl>, travel_by_bus <lgl>, travel_by_bicycle <lgl>,
#> #   travel_by_auto <lgl>, travel_by_motorcycle <lgl>,
#> #   participant_presence_on_road <lgl>, non_codable <lgl>
…
